classes= 80
train  = /home/biblbrox/sources/NLLK/dataset/train.txt
valid  = /home/biblbrox/sources/NLLK/dataset/val.txt
names = /home/biblbrox/sources/NLLK/nn/yolo/coco.names
backup = /home/biblbrox/sources/NLLK/nn/yolo
eval=coco